Data wrangling with tidyverse: Reshaping and Merging
…
  ]

.panel[.panel-name[Exercise 2]

+ Reshape the data back into the long format so that a single columns has all the flight number values 

Here is the output you are supposed to get if done correctly:

```
## # A tibble: 192 × 3
## # Groups:   carrier [16]
##    carrier month num_flights
##    <chr>   <chr>       <int>
##  1 9E      1            1573
##  2 9E      2            1459
##  3 9E      3            1627
##  4 9E      4            1511
##  5 9E      5            1462
##  6 9E      6            1437
##  7 9E      7            1494
##  8 9E      8            1456
##  9 9E      9            1540
## 10 9E      10           1673
## # … with 182 more rows
```
…
.panel[.panel-name[Exercise 1]

+ You are interested in learning the impact of **daily** temperature on departure delay for the flights in January. To do so, you need to have the variables in a single dataset.  

+ Is this going to be a 1-to-1 matching or 1-to-m matching?

+ Merge `daily_temp_Jan` to `flights_Jan` using `left_join()`

<br>

Here is the output you are supposed to get if done correctly:

```
## # A tibble: 27,004 × 5
##    month   day dep_delay origin  temp
##    <int> <int>     <dbl> <chr>  <dbl>
##  1     1     1         2 EWR     32.5
##  2     1     1         4 LGA     37.7
##  3     1     1         2 JFK     33.0
##  4     1     1        -1 JFK     33.0
##  5     1     1        -6 LGA     37.7
##  6     1     1        -4 EWR     32.5
##  7     1     1        -5 EWR     32.5
##  8     1     1        -3 LGA     37.7
##  9     1     1        -3 JFK     33.0
## 10     1     1        -2 LGA     37.7
## # … with 26,994 more rows
```
…
.panel[.panel-name[Exercise 2]

+ You are interested in learning the impact of **hourly** temperature on departure delay for the flights in January. To do so, you need to have them in a single dataset.  

+ Is this going to be a 1-to-1 matching or 1-to-m matching?

+ Merge `hourly_temp_Jan` to `flights_Jan` using `left_join()`

<br>

Here is the output you are supposed to get if done correctly:

```
## # A tibble: 151,660 × 6
##    month   day dep_delay origin  hour  temp
##    <int> <int>     <dbl> <chr>  <int> <dbl>
##  1     1     1         2 EWR       16  37.0
##  2     1     1         2 EWR       18  34.0
##  3     1     1         2 EWR       21  30.0
##  4     1     1         2 EWR       22  28.9
##  5     1     1         4 LGA        1  39.9
##  6     1     1         4 LGA        2  41  
##  7     1     1         4 LGA        3  41  
##  8     1     1         4 LGA        4  41  
##  9     1     1         4 LGA        5  39.9
## 10     1     1         4 LGA        6  39.9
## # … with 151,650 more rows
```
…
